a,00,Branco,https://www.ingredientecomunicacao.com.br/wp-content/uploads/2020/11/voto-branco-1024x649.png
a,11,Pedro,https://www.cnnbrasil.com.br/wp-content/uploads/2021/06/21995_47022457A67E1FF5.jpg
a,12,João,https://www.cnnbrasil.com.br/wp-content/uploads/sites/12/2021/09/Nadador-Talisson-Glock-conquistou-ouro-nos-400-m-livre-classe-S6-e1630599926493.jpg?w=300&h=168
a,13,Alemão,https://www.cnnbrasil.com.br/wp-content/uploads/sites/12/2021/08/Paulo-Guedes_Fabio-Rodrigues-Pozzebom_AgBr.jpg?w=300&h=168&crop=1
a,14,Cesar,https://upload.wikimedia.org/wikipedia/commons/thumb/8/83/Bra-Cos_%281%29_%28cropped%29.jpg/300px-Bra-Cos_%281%29_%28cropped%29.jpg
a,15,Alex,https://upload.wikimedia.org/wikipedia/commons/thumb/2/23/Neymar_Junior_the_Future_of_Brazil_2.jpg/330px-Neymar_Junior_the_Future_of_Brazil_2.jpg